{
  "version": "15.0.7",
  "vulnerabilities": [
    {
      "id": ":SKIP:",
      "category": "secret_detection",
      "name": "Test for Custom Rulesets",
      "description": "Test for Custom Rulesets",
      "cve": "main.php:414bd95595331c3de0347cebaa017a193a2cc237abb33c2cd8dcf14bc1d78359:Test for Custom Rulesets",
      "severity": "Critical",
      "confidence": "Unknown",
      "raw_source_code_extract": "Custom Ruleset Test",
      "scanner": {
        "id": "gitleaks",
        "name": "Gitleaks"
      },
      "location": {
        "file": "main.php",
        "commit": {
          "sha": "0000000"
        },
        "start_line": 14
      },
      "identifiers": [
        {
          "type": "gitleaks_rule_id",
          "name": "Gitleaks rule ID Test for Custom Rulesets",
          "value": "Test for Custom Rulesets"
        }
      ]
    }
  ],
  "dependency_files": [],
  "scan": {
    "analyzer": {
      "id": "secrets",
      "name": "secrets",
      "url": "https://gitlab.com/gitlab-org/security-products/analyzers/secrets",
      "vendor": {
        "name": "GitLab"
      },
      "version": ":SKIP:"
    },
    "scanner": {
      "id": "gitleaks",
      "name": "Gitleaks",
      "url": "https://github.com/zricethezav/gitleaks",
      "vendor": {
        "name": "GitLab"
      },
      "version": ":SKIP:"
    },
    "type": "secret_detection",
    "start_time": ":SKIP:",
    "end_time": ":SKIP:",
    "status": "success"
  }
}
